<?xml version="1.0" encoding="utf-8"?>
<!-- Generator: Adobe Illustrator 19.0.0, SVG Export Plug-In . SVG Version: 6.00 Build 0)  -->
<svg version="1.1" xmlns="http://www.w3.org/2000/svg" xmlns:xlink="http://www.w3.org/1999/xlink" x="0px" y="0px"
	 viewBox="0 0 201.6 87.5" style="enable-background:new 0 0 201.6 87.5;" xml:space="preserve">
<style type="text/css">
	.st0{display:none;}
	.st1{display:inline;}
	.st2{fill:#ffffff;}
</style>
<g id="Layer_1" class="st0">
	<g id="XMLID_232_" class="st1">
		<g id="XMLID_92_">
			<polygon id="XMLID_228_" class="st2" points="-8.5,35 13.9,35 13.9,38.3 -9.9,38.3 			"/>
			<polygon id="XMLID_95_" class="st2" points="-8.5,29.5 13.9,29.5 13.9,32.7 -9.9,32.7 			"/>
			<polygon id="XMLID_94_" class="st2" points="-8.5,40.9 13.9,40.9 13.9,44.1 -9.9,44.1 			"/>
		</g>
		<g id="XMLID_83_">
			<g id="XMLID_186_">
				<g id="XMLID_214_">
					<path id="XMLID_237_" class="st2" d="M-20.8,52.3h1.3v4.6h2.8V58h-4.1V52.3z"/>
					<path id="XMLID_234_" class="st2" d="M-13,55.2c0-1.6,1.3-2.9,3-2.9s3,1.3,3,2.9c0,1.6-1.3,2.9-3,2.9S-13,56.8-13,55.2z
						 M-8.2,55.2c0-1-0.7-1.8-1.7-1.8s-1.7,0.8-1.7,1.8c0,1,0.7,1.8,1.7,1.8S-8.2,56.1-8.2,55.2z"/>
					<path id="XMLID_231_" class="st2" d="M-3.1,57.2l0.7-0.9c0.5,0.4,1,0.7,1.7,0.7c0.5,0,0.8-0.2,0.8-0.6c0-0.3-0.2-0.5-1.1-0.7
						c-1.1-0.3-1.9-0.6-1.9-1.8c0-1,0.8-1.7,2-1.7c0.8,0,1.5,0.3,2.1,0.7l-0.7,0.9c-0.5-0.3-1-0.6-1.5-0.6c-0.5,0-0.7,0.2-0.7,0.5
						c0,0.4,0.2,0.5,1.2,0.7c1.2,0.3,1.8,0.7,1.8,1.7c0,1.1-0.9,1.8-2.1,1.8C-1.6,58.1-2.4,57.8-3.1,57.2z"/>
					<path id="XMLID_227_" class="st2" d="M13.4,52.3h1.2L17,58h-1.3l-0.5-1.3h-2.4L12.2,58h-1.3L13.4,52.3z M14.7,55.6l-0.8-1.8
						l-0.8,1.8H14.7z"/>
					<path id="XMLID_225_" class="st2" d="M21,52.3h1.2l2.7,3.5v-3.5H26V58H25l-2.8-3.6V58H21V52.3z"/>
					<path id="XMLID_223_" class="st2" d="M30.4,55.2c0-1.6,1.3-2.9,3-2.9c1,0,1.6,0.3,2.2,0.8l-0.8,1c-0.4-0.4-0.8-0.6-1.5-0.6
						c-0.9,0-1.6,0.8-1.6,1.8c0,1,0.7,1.8,1.7,1.8c0.5,0,0.9-0.1,1.2-0.3v-0.8h-1.3v-1.1h2.5v2.5c-0.6,0.5-1.4,0.9-2.4,0.9
						C31.6,58.1,30.4,56.9,30.4,55.2z"/>
					<path id="XMLID_221_" class="st2" d="M40.3,52.3h4.3v1.1h-3v1.2h2.7v1.1h-2.7v1.2h3.1V58h-4.3V52.3z"/>
					<path id="XMLID_219_" class="st2" d="M49,52.3h1.3v4.6h2.8V58H49V52.3z"/>
					<path id="XMLID_217_" class="st2" d="M57.1,52.3h4.3v1.1h-3v1.2h2.7v1.1h-2.7v1.2h3.1V58h-4.3V52.3z"/>
					<path id="XMLID_215_" class="st2" d="M65.4,57.2l0.7-0.9c0.5,0.4,1,0.7,1.7,0.7c0.5,0,0.8-0.2,0.8-0.6c0-0.3-0.2-0.5-1.1-0.7
						c-1.1-0.3-1.9-0.6-1.9-1.8c0-1,0.8-1.7,2-1.7c0.8,0,1.5,0.3,2.1,0.7l-0.7,0.9c-0.5-0.3-1-0.6-1.5-0.6c-0.5,0-0.7,0.2-0.7,0.5
						c0,0.4,0.2,0.5,1.2,0.7c1.2,0.3,1.8,0.7,1.8,1.7c0,1.1-0.9,1.8-2.1,1.8C67,58.1,66.1,57.8,65.4,57.2z"/>
				</g>
			</g>
			<path id="XMLID_112_" class="st2" d="M94.9,40.3c0,1.3,0,2.6,0,4c-1.3,0-2.5,0-3.7,0c0-4.9,0-9.8,0-14.7c0.2,0,0.3,0,0.5,0
				c2.2,0,4.4,0,6.7,0c1.6,0,3.1,0.4,4.3,1.7c1.2,1.3,1.4,2.9,1.2,4.5c-0.2,1.8-1.1,3.2-2.8,4.1c1.1,1.5,2.1,2.9,3.2,4.5
				c-1.2,0-4.5,0-4.5,0l-2.8-4C96.8,40.3,95.5,40.3,94.9,40.3z M95,36.9c1.2,0,2.4,0,3.5,0c1,0,1.7-0.8,1.8-1.8
				c0.1-1.2-0.4-2-1.6-2.1c-1.2-0.1-2.5,0-3.7,0C95,34.3,95,35.6,95,36.9z"/>
			<path id="XMLID_111_" class="st2" d="M81.9,29.5h3.8c0,0-0.1,7.4-0.1,8.3c-0.1,2.5-1.1,6.8-6.8,6.7c-5.6,0-6.6-4.3-6.6-6.6
				c0-1-0.1-8.4-0.1-8.4h3.8c0,0,0,6.4,0,7.8c0,1.4,0.1,3.6,2.9,3.6c2.9,0,3-1.9,3-3.6C82,36,81.9,29.5,81.9,29.5z"/>
			<path id="XMLID_109_" class="st2" d="M36.1,44.3c-1.3,0-2.5,0-3.8,0c0-3.7,0-7.3,0-11.1c-1.6,0-3.1,0-4.6,0c0-1.2,0-2.4,0-3.6
				c4.3,0,8.6,0,12.9,0c0,1.2,0,2.4,0,3.6c-1.5,0-3,0-4.6,0C36.1,37,36.1,40.6,36.1,44.3z"/>
			<path id="XMLID_108_" class="st2" d="M112.1,39.9c0.2,1.6,2.7,1.5,3.7,1.2c0.7-0.2,1-0.9,0.4-1.4c-1.4-1-8.3-2-7.5-6.6
				c0.1-0.8,1-3.7,5.4-3.8c5.6,0,6.3,3.6,6.3,4.9l-3.6,0c0-1-1-1.7-2.2-1.7c-1.1,0-1.8,0.4-1.8,0.8c-0.1,0.5,0.2,0.8,0.6,1
				c3.6,1.4,7.2,2.5,7.3,5.6c0,2.3-1.3,3.7-2.8,4.2c-2.4,0.8-4.7,0.8-6.9-0.3c-1.5-0.8-2.4-2-2.3-3.8
				C109.6,39.9,110.8,39.9,112.1,39.9z"/>
			<path id="XMLID_102_" class="st2" d="M-76.7,44.2l0-14.7c0,0,4.7,0,6.8,0c2.1,0,3.9,0.6,5.3,2.3c1.5,1.7,1.9,3.8,1.7,6
				c-0.1,1.7-0.7,3.2-1.8,4.4c-1.2,1.3-2.8,1.9-4.5,2C-71.7,44.2-76.7,44.2-76.7,44.2z M-72.9,33.2c0,2.4,0,7.4,0,7.4s2.1,0.1,3.1,0
				c1.3-0.1,2.3-0.7,2.7-2c0.4-1,0.4-2,0.2-3c-0.3-1.3-1.1-2.2-2.4-2.3C-70.5,33.1-71.7,33.2-72.9,33.2z"/>
			<path id="XMLID_99_" class="st2" d="M-53.2,40.2c0,1.3,0,2.6,0,4c-1.3,0-2.5,0-3.7,0c0-4.9,0-9.8,0-14.7c0.2,0,0.3,0,0.5,0
				c2.2,0,4.4,0,6.7,0c1.6,0,3.1,0.4,4.3,1.7c1.2,1.3,1.4,2.9,1.2,4.5c-0.2,1.8-1.1,3.2-2.8,4.1c1.1,1.5,2.1,2.9,3.2,4.5
				c-1.2,0-4.5,0-4.5,0l-2.8-4C-51.3,40.2-52.6,40.2-53.2,40.2z M-53.2,36.8c1.2,0,2.4,0,3.5,0c1,0,1.7-0.8,1.8-1.8
				c0.1-1.2-0.4-2-1.6-2.1c-1.2-0.1-2.5,0-3.7,0C-53.2,34.2-53.2,35.4-53.2,36.8z"/>
			<polygon id="XMLID_97_" class="st2" points="-28.6,29.5 -24.5,29.5 -20.8,39.4 -17.1,29.5 -13,29.5 -19,44.2 -22.7,44.2 			"/>
			<path id="XMLID_96_" class="st2" d="M-37.8,29.5c1.3,0,2.5,0,3.7,0c0,4.9,0,9.8,0,14.7c-1.2,0-2.5,0-3.7,0
				C-37.8,39.3-37.8,34.4-37.8,29.5z"/>
			<g id="XMLID_89_">
				<path id="XMLID_91_" class="st2" d="M55.5,42.6c0-0.7,0.4-1.3,0.7-1.8l-4.2,0c-2.2,0-4-1.8-4-4c0-2.2,1.8-4,4-4l0.5,0l1.1-1.8
					l-1.2-1.9h-0.5c-4.2,0-7.8,3.5-7.8,7.6c0,4.2,3.5,7.6,7.8,7.7l4.3,0C55.9,44.1,55.5,43.3,55.5,42.6z"/>
				<path id="XMLID_90_" class="st2" d="M59.9,29.2l-5.2,0c0.3,0.4,0.7,1.1,0.7,1.8c0,0.7-0.4,1.3-0.7,1.8l5,0c2.2,0,4,1.8,4,4
					c0,2.2-1.8,4-4,4l-1.3,0l-1.1,1.8l1.2,1.9l1.3,0c4.2,0,7.8-3.5,7.8-7.6C67.7,32.7,64.2,29.2,59.9,29.2z"/>
			</g>
		</g>
	</g>
</g>
<g id="Layer_2">
	<g id="XMLID_84_">
		<path id="XMLID_81_" d="M126.4,61.2c-0.2,0-0.3,0-0.4-0.1c-0.5-0.2-0.7-0.8-0.4-1.3l7-14l-7-13.4c-0.3-0.5-0.1-1.1,0.4-1.4
			c0.5-0.3,1.1-0.1,1.4,0.4l7.3,13.8c0.2,0.3,0.2,0.6,0,0.9l-7.3,14.5C127.1,61,126.8,61.2,126.4,61.2z"/>
	</g>
	<g id="XMLID_82_">
		<path id="XMLID_80_" d="M57.5,61.2c-0.4,0-0.7-0.2-0.9-0.5l-7.3-13.8c-0.2-0.3-0.2-0.6,0-0.9l7.3-14.5c0.2-0.5,0.8-0.7,1.3-0.4
			c0.5,0.2,0.7,0.8,0.4,1.3l-7,14l7,13.4c0.3,0.5,0.1,1.1-0.4,1.4C57.8,61.1,57.6,61.2,57.5,61.2z"/>
	</g>
</g>
</svg>
